{
  "packageId": "ar.com.capillum.twa",
  "host": "capillum.com.ar",
  "name": "Capillum",
  "launcherName": "Capillum",
  "display": "fullscreen",
  "themeColor": "#FFFFFF",
  "navigationColor": "#000000",
  "navigationColorDark": "#000000",
  "navigationDividerColor": "#000000",
  "navigationDividerColorDark": "#000000",
  "backgroundColor": "#FFFFFF",
  "enableNotifications": false,
  "startUrl": "/turnos/public/index.php",
  "iconUrl": "https://capillum.com.ar/turnos/public/app/icons/icon-512x512.png",
  "maskableIconUrl": "https://capillum.com.ar/turnos/public/app/icons/mask-icon.png",
  "splashScreenFadeOutDuration": 300,
  "signingKey": {
    "path": "./android.keystore",
    "alias": "CapillumKey"
  },
  "appVersionName": "1",
  "appVersionCode": 1,
  "shortcuts": [],
  "generatorApp": "bubblewrap-cli",
  "webManifestUrl": "https://capillum.com.ar/turnos/public/manifest.json",
  "fallbackType": "customtabs",
  "features": {},
  "enableSiteSettingsShortcut": true,
  "isChromeOSOnly": false,
  "appVersion": "1"
}